{
  "@context": {
    "cc": "http://creativecommons.org/ns#",
    "schema": "http://schema.org/",
    "cred": "https://www.w3.org/2018/credentials#",
    "void": "http://rdfs.org/ns/void#",
    "owl": "http://www.w3.org/2002/07/owl#",
    "xsd": "http://www.w3.org/2001/XMLSchema#",
    "gax-validation": "http://w3id.org/gaia-x/validation#",
    "skos": "http://www.w3.org/2004/02/skos/core#",
    "voaf": "http://purl.org/vocommons/voaf#",
    "rdfs": "http://www.w3.org/2000/01/rdf-schema#",
    "vcard": "http://www.w3.org/2006/vcard/ns#",
    "gax-core": "http://w3id.org/gaia-x/core#",
    "dct": "http://purl.org/dc/terms/",
    "sh": "http://www.w3.org/ns/shacl#",
    "gax-trust-framework": "http://w3id.org/gaia-x/gax-trust-framework#",
    "rdf": "http://www.w3.org/1999/02/22-rdf-syntax-ns#",
    "ids": "https://w3id.org/idsa/core/",
    "dcat": "http://www.w3.org/ns/dcat#",
    "vann": "http://purl.org/vocab/vann/",
    "foaf": "http://xmlns.com/foaf/0.1/",
    "did": "https://www.w3.org/TR/did-core/#"
  },
  "@id": "did:web:cloudandheat.com/virtual-machine-offering",
  "@type": "gax-trust-framework:VirtualMachine",
  "gax-trust-framework:name": {
    "@value": "C&H Public Cloud",
    "@type": "xsd:string"
  },
  "gax-trust-framework:codeArtifact": [
    {
      "@id": "did:web:cloudandheat.com/image-centos-8"
    },
    {
      "@id": "did:web:cloudandheat.com/image-fedora-33"
    }
  ],
  "gax-trust-framework:termsAndConditions": {
    "@type": "gax-trust-framework:TermsAndConditions",
    "gax-trust-framework:content": {
      "@value": "https://www.cloudandheat.com/terms-conditions/",
      "@type": "xsd:anyURI"
    },
    "gax-trust-framework:hash": {
      "@value": "3b8a1387b5a80eaa733fc569d64d7e45248bda9a540c0a9ec0aff96e04bbfa02",
      "@type": "xsd:string"
    }
  },
  "gax-trust-framework:instantiationReq": [
    {
      "@id": "did:web:cloudandheat.com/flavor-xs"
    },
    {
      "@id": "did:web:cloudandheat.com/flavor-s"
    }
  ],
  "gax-trust-framework:policy": {
    "@value": "...",
    "@type": "xsd:string"
  },
  "gax-trust-framework:tenantSeparation": {
    "@value": "virtual",
    "@type": "xsd:string"
  },
  "gax-trust-framework:dataAccountExport": {
    "@type": "gax-trust-framework:DataAccountExport",
    "gax-trust-framework:requestType": {
      "@value": "supportCenter",
      "@type": "xsd:string"
    },
    "gax-trust-framework:accessType": {
      "@value": "digital",
      "@type": "xsd:string"
    },
    "gax-trust-framework:formatType": {
      "@value": "application/pdf",
      "@type": "xsd:string"
    }
  },
  "dcat:keyword": [
    {
      "@value": "IaaS",
      "@type": "xsd:string"
    },
    {
      "@value": "public cloud",
      "@type": "xsd:string"
    }
  ],
  "gax-trust-framework:providedBy": {
    "@id": "did:web:cloudandheat.com"
  }
}
