{
	"@context": {
		"cc": "http://creativecommons.org/ns#",
		"cred": "https://www.w3.org/TR/vc-data-model/",
		"dcat": "http://www.w3.org/ns/dcat#",
		"dct": "http://purl.org/dc/terms/",
		"foaf": "http://xmlns.com/foaf/0.1/",
		"gax-core": "{{BASE_URI}}/core#",
		"gax-trust-framework": "{{BASE_URI}}/gax-trust-framework#",
		"gax-validation": "{{BASE_URI}}/validation#",
		"owl": "http://www.w3.org/2002/07/owl#",
		"rdfs": "http://www.w3.org/2000/01/rdf-schema#",
		"sh": "http://www.w3.org/ns/shacl#",
		"vann": "http://purl.org/vocab/vann/",
		"vcard": "http://www.w3.org/2006/vcard/ns#",
		"voaf": "http://purl.org/vocommons/voaf#",
		"void": "http://rdfs.org/ns/void#",
		"xsd": "http://www.w3.org/2001/XMLSchema#",
		"gax-trust-framework:attestationServiceURI": {
            "@type": "xsd:anyURI"
        },
		"gax-trust-framework:content": {
            "@type": "xsd:anyURI"
        },
		"gax-trust-framework:dependsOn": {
            "@type": "xsd:anyURI"
        },
		"gax-trust-framework:endPointURL": {
            "@type": "xsd:anyURI"
        },
		"gax-trust-framework:endpointDescription": {
            "@type": "xsd:anyURI"
        },
		"gax-trust-framework:file": {
            "@type": "xsd:anyURI"
        },
		"gax-trust-framework:hasReferenceUrl": {
            "@type": "xsd:anyURI"
        },
		"gax-trust-framework:managementInterface": {
            "@type": "xsd:anyURI"
        },
		"gax-trust-framework:policies": {
            "@type": "xsd:anyURI"
        },
		"gax-trust-framework:standardReference": {
            "@type": "xsd:anyURI"
        },
		"gax-trust-framework:URL": {
            "@type": "xsd:anyURI"
        }
	}
}
