{
  "@context": {
    "ids": "https://w3id.org/idsa/core/",
    "owl": "http://www.w3.org/2002/07/owl#",
    "rdf": "http://www.w3.org/1999/02/22-rdf-syntax-ns#",
    "rdfs": "http://www.w3.org/2000/01/rdf-schema#",
    "schema": "http://schema.org/",
    "xsd": "http://www.w3.org/2001/XMLSchema#",
    "gax-resource": "http://w3id.org/gaia-x/resource#",
    "gax-service": "http://w3id.org/gaia-x/service#",
    "ex": "http://example.org/",
    "dct": "http://purl.org/dc/terms/"
  },
  "@id": "ex:NVIDIA-A10",
  "@type": "gax-resource:BareMetalNode",
  "gax-resource:Name": "NVIDIA-A10",
  "gax-service:NodeName": "NVIDIA-A10",
  "dct:Description": "Placeholder Description",
  "dct:location": "Placeholder Location",
  "gax-resource:Jurisdiction": "Placeholder Jurisdiction",
  "gax-resource:ProductID": "NVIDIA A10",
  "gax-resource:isOperatedBy": {
    "@id": "ex:ACMEProvider",
    "@type": "gax-participant:LegalPerson"
  }
}
